{
    "defaultSeverity": "error",
    "extends": ["tslint:recommended"],
    "jsRules": {},
    "rules": {
        "trailing-comma": [true],
        "ordered-imports": [false],
        "semicolon": [true, "always", "ignore-bound-class-methods"],
        "variable-name": {
            "options": ["allow-leading-underscore"]
        }
    },
    "rulesDirectory": []
}
